%YAML 1.1
%TAG !u! tag:unity3d.com,2011:
--- !u!114 &11400000
MonoBehaviour:
  m_ObjectHideFlags: 0
  m_CorrespondingSourceObject: {fileID: 0}
  m_PrefabInstance: {fileID: 0}
  m_PrefabAsset: {fileID: 0}
  m_GameObject: {fileID: 0}
  m_Enabled: 1
  m_EditorHideFlags: 0
  m_Script: {fileID: 11500000, guid: 8af96054db6adcf479bb78f6db85f146, type: 3}
  m_Name: Container
  m_EditorClassIdentifier: 
  cardType: 3
  cardSprite: {fileID: 21300000, guid: ca1af87c6db9beb4886bd9a954634b5a, type: 3}
  autoPickedUpAtLevel: 2
  isConsumed: 1
  onUseSound: {fileID: 8300000, guid: b8f86c03080501349b630d6c85606189, type: 3}
  disassembledIntoA: 0
  disassembledIntoB: 0
