%YAML 1.1
%TAG !u! tag:unity3d.com,2011:
--- !u!114 &11400000
MonoBehaviour:
  m_ObjectHideFlags: 0
  m_CorrespondingSourceObject: {fileID: 0}
  m_PrefabInstance: {fileID: 0}
  m_PrefabAsset: {fileID: 0}
  m_GameObject: {fileID: 0}
  m_Enabled: 1
  m_EditorHideFlags: 0
  m_Script: {fileID: 11500000, guid: 8af96054db6adcf479bb78f6db85f146, type: 3}
  m_Name: Key
  m_EditorClassIdentifier: 
  cardType: 1
  cardSprite: {fileID: 21300000, guid: 9f01ba54467176747992806f8227b5f1, type: 3}
  placeholderName: 
  autoPickedUpAtLevel: 1
  isConsumed: 1
  onUseSound: {fileID: 8300000, guid: c73ffc97f08f25e489a27509f5312eaf, type: 3}
  disassembledIntoA: 0
  disassembledIntoB: 0
