%YAML 1.1
%TAG !u! tag:unity3d.com,2011:
--- !u!114 &11400000
MonoBehaviour:
  m_ObjectHideFlags: 0
  m_CorrespondingSourceObject: {fileID: 0}
  m_PrefabInstance: {fileID: 0}
  m_PrefabAsset: {fileID: 0}
  m_GameObject: {fileID: 0}
  m_Enabled: 1
  m_EditorHideFlags: 0
  m_Script: {fileID: 11500000, guid: 8af96054db6adcf479bb78f6db85f146, type: 3}
  m_Name: Pliers
  m_EditorClassIdentifier: 
  cardType: 12
  cardSprite: {fileID: 21300000, guid: 6590f8742cd7f6843a16edd43e1a8a05, type: 3}
  placeholderName: 
  autoPickedUpAtLevel: 0
  isConsumed: 0
  onUseSound: {fileID: 8300000, guid: 0a981c06a22f28c4c8c292ccfc055d89, type: 3}
  disassembledIntoA: 6
  disassembledIntoB: 13
