%YAML 1.1
%TAG !u! tag:unity3d.com,2011:
--- !u!29 &1
OcclusionCullingSettings:
  m_ObjectHideFlags: 0
  serializedVersion: 2
  m_OcclusionBakeSettings:
    smallestOccluder: 5
    smallestHole: 0.25
    backfaceThreshold: 100
  m_SceneGUID: 00000000000000000000000000000000
  m_OcclusionCullingData: {fileID: 0}
--- !u!104 &2
RenderSettings:
  m_ObjectHideFlags: 0
  serializedVersion: 9
  m_Fog: 0
  m_FogColor: {r: 0.5, g: 0.5, b: 0.5, a: 1}
  m_FogMode: 3
  m_FogDensity: 0.01
  m_LinearFogStart: 0
  m_LinearFogEnd: 300
  m_AmbientSkyColor: {r: 0.212, g: 0.227, b: 0.259, a: 1}
  m_AmbientEquatorColor: {r: 0.114, g: 0.125, b: 0.133, a: 1}
  m_AmbientGroundColor: {r: 0.047, g: 0.043, b: 0.035, a: 1}
  m_AmbientIntensity: 1
  m_AmbientMode: 0
  m_SubtractiveShadowColor: {r: 0.42, g: 0.478, b: 0.627, a: 1}
  m_SkyboxMaterial: {fileID: 10304, guid: 0000000000000000f000000000000000, type: 0}
  m_HaloStrength: 0.5
  m_FlareStrength: 1
  m_FlareFadeSpeed: 3
  m_HaloTexture: {fileID: 0}
  m_SpotCookie: {fileID: 10001, guid: 0000000000000000e000000000000000, type: 0}
  m_DefaultReflectionMode: 0
  m_DefaultReflectionResolution: 128
  m_ReflectionBounces: 1
  m_ReflectionIntensity: 1
  m_CustomReflection: {fileID: 0}
  m_Sun: {fileID: 0}
  m_IndirectSpecularColor: {r: 0, g: 0, b: 0, a: 1}
  m_UseRadianceAmbientProbe: 0
--- !u!157 &3
LightmapSettings:
  m_ObjectHideFlags: 0
  serializedVersion: 11
  m_GIWorkflowMode: 1
  m_GISettings:
    serializedVersion: 2
    m_BounceScale: 1
    m_IndirectOutputScale: 1
    m_AlbedoBoost: 1
    m_EnvironmentLightingMode: 0
    m_EnableBakedLightmaps: 1
    m_EnableRealtimeLightmaps: 1
  m_LightmapEditorSettings:
    serializedVersion: 12
    m_Resolution: 2
    m_BakeResolution: 40
    m_AtlasSize: 1024
    m_AO: 0
    m_AOMaxDistance: 1
    m_CompAOExponent: 1
    m_CompAOExponentDirect: 0
    m_ExtractAmbientOcclusion: 0
    m_Padding: 2
    m_LightmapParameters: {fileID: 0}
    m_LightmapsBakeMode: 1
    m_TextureCompression: 1
    m_FinalGather: 0
    m_FinalGatherFiltering: 1
    m_FinalGatherRayCount: 256
    m_ReflectionCompression: 2
    m_MixedBakeMode: 1
    m_BakeBackend: 0
    m_PVRSampling: 1
    m_PVRDirectSampleCount: 32
    m_PVRSampleCount: 512
    m_PVRBounces: 2
    m_PVREnvironmentSampleCount: 512
    m_PVREnvironmentReferencePointCount: 2048
    m_PVRFilteringMode: 0
    m_PVRDenoiserTypeDirect: 0
    m_PVRDenoiserTypeIndirect: 0
    m_PVRDenoiserTypeAO: 0
    m_PVRFilterTypeDirect: 0
    m_PVRFilterTypeIndirect: 0
    m_PVRFilterTypeAO: 0
    m_PVREnvironmentMIS: 0
    m_PVRCulling: 1
    m_PVRFilteringGaussRadiusDirect: 1
    m_PVRFilteringGaussRadiusIndirect: 5
    m_PVRFilteringGaussRadiusAO: 2
    m_PVRFilteringAtrousPositionSigmaDirect: 0.5
    m_PVRFilteringAtrousPositionSigmaIndirect: 2
    m_PVRFilteringAtrousPositionSigmaAO: 1
    m_ExportTrainingData: 0
    m_TrainingDataDestination: TrainingData
  m_LightingDataAsset: {fileID: 0}
  m_UseShadowmask: 0
--- !u!196 &4
NavMeshSettings:
  serializedVersion: 2
  m_ObjectHideFlags: 0
  m_BuildSettings:
    serializedVersion: 2
    agentTypeID: 0
    agentRadius: 0.5
    agentHeight: 2
    agentSlope: 45
    agentClimb: 0.4
    ledgeDropHeight: 0
    maxJumpAcrossDistance: 0
    minRegionArea: 2
    manualCellSize: 0
    cellSize: 0.16666667
    manualTileSize: 0
    tileSize: 256
    accuratePlacement: 0
    debug:
      m_Flags: 0
  m_NavMeshData: {fileID: 0}
--- !u!1 &288644072
GameObject:
  m_ObjectHideFlags: 0
  m_CorrespondingSourceObject: {fileID: 0}
  m_PrefabInstance: {fileID: 0}
  m_PrefabAsset: {fileID: 0}
  serializedVersion: 6
  m_Component:
  - component: {fileID: 288644077}
  - component: {fileID: 288644076}
  - component: {fileID: 288644075}
  - component: {fileID: 288644074}
  - component: {fileID: 288644073}
  m_Layer: 0
  m_Name: Main Camera
  m_TagString: MainCamera
  m_Icon: {fileID: 0}
  m_NavMeshLayer: 0
  m_StaticEditorFlags: 0
  m_IsActive: 1
--- !u!81 &288644073
AudioListener:
  m_ObjectHideFlags: 0
  m_CorrespondingSourceObject: {fileID: 0}
  m_PrefabInstance: {fileID: 0}
  m_PrefabAsset: {fileID: 0}
  m_GameObject: {fileID: 288644072}
  m_Enabled: 1
--- !u!124 &288644074
Behaviour:
  m_ObjectHideFlags: 0
  m_CorrespondingSourceObject: {fileID: 0}
  m_PrefabInstance: {fileID: 0}
  m_PrefabAsset: {fileID: 0}
  m_GameObject: {fileID: 288644072}
  m_Enabled: 1
--- !u!92 &288644075
Behaviour:
  m_ObjectHideFlags: 0
  m_CorrespondingSourceObject: {fileID: 0}
  m_PrefabInstance: {fileID: 0}
  m_PrefabAsset: {fileID: 0}
  m_GameObject: {fileID: 288644072}
  m_Enabled: 1
--- !u!20 &288644076
Camera:
  m_ObjectHideFlags: 0
  m_CorrespondingSourceObject: {fileID: 0}
  m_PrefabInstance: {fileID: 0}
  m_PrefabAsset: {fileID: 0}
  m_GameObject: {fileID: 288644072}
  m_Enabled: 1
  serializedVersion: 2
  m_ClearFlags: 2
  m_BackGroundColor: {r: 0.7950788, g: 0.8395614, b: 0.8627451, a: 0}
  m_projectionMatrixMode: 1
  m_GateFitMode: 2
  m_FOVAxisMode: 0
  m_SensorSize: {x: 36, y: 24}
  m_LensShift: {x: 0, y: 0}
  m_FocalLength: 50
  m_NormalizedViewPortRect:
    serializedVersion: 2
    x: 0
    y: 0
    width: 1
    height: 1
  near clip plane: 0.3
  far clip plane: 1000
  field of view: 60
  orthographic: 1
  orthographic size: 5
  m_Depth: -1
  m_CullingMask:
    serializedVersion: 2
    m_Bits: 4294967295
  m_RenderingPath: -1
  m_TargetTexture: {fileID: 0}
  m_TargetDisplay: 0
  m_TargetEye: 3
  m_HDR: 0
  m_AllowMSAA: 1
  m_AllowDynamicResolution: 0
  m_ForceIntoRT: 0
  m_OcclusionCulling: 1
  m_StereoConvergence: 10
  m_StereoSeparation: 0.022
--- !u!4 &288644077
Transform:
  m_ObjectHideFlags: 0
  m_CorrespondingSourceObject: {fileID: 0}
  m_PrefabInstance: {fileID: 0}
  m_PrefabAsset: {fileID: 0}
  m_GameObject: {fileID: 288644072}
  m_LocalRotation: {x: 0, y: 0, z: 0, w: 1}
  m_LocalPosition: {x: 0, y: 1, z: -10}
  m_LocalScale: {x: 1, y: 1, z: 1}
  m_Children: []
  m_Father: {fileID: 0}
  m_RootOrder: 0
  m_LocalEulerAnglesHint: {x: 0, y: 0, z: 0}
--- !u!1001 &662389787
PrefabInstance:
  m_ObjectHideFlags: 0
  serializedVersion: 2
  m_Modification:
    m_TransformParent: {fileID: 0}
    m_Modifications:
    - target: {fileID: 1733289766624924, guid: 4ca1679f59738414ba176b2992042c80, type: 3}
      propertyPath: m_Name
      value: Spectrum (Low Frequencies)
      objectReference: {fileID: 0}
    - target: {fileID: 4386625243646400, guid: 4ca1679f59738414ba176b2992042c80, type: 3}
      propertyPath: m_LocalPosition.x
      value: 0
      objectReference: {fileID: 0}
    - target: {fileID: 4386625243646400, guid: 4ca1679f59738414ba176b2992042c80, type: 3}
      propertyPath: m_LocalPosition.y
      value: -2.5
      objectReference: {fileID: 0}
    - target: {fileID: 4386625243646400, guid: 4ca1679f59738414ba176b2992042c80, type: 3}
      propertyPath: m_LocalPosition.z
      value: 0
      objectReference: {fileID: 0}
    - target: {fileID: 4386625243646400, guid: 4ca1679f59738414ba176b2992042c80, type: 3}
      propertyPath: m_LocalRotation.x
      value: 0
      objectReference: {fileID: 0}
    - target: {fileID: 4386625243646400, guid: 4ca1679f59738414ba176b2992042c80, type: 3}
      propertyPath: m_LocalRotation.y
      value: 0
      objectReference: {fileID: 0}
    - target: {fileID: 4386625243646400, guid: 4ca1679f59738414ba176b2992042c80, type: 3}
      propertyPath: m_LocalRotation.z
      value: 0
      objectReference: {fileID: 0}
    - target: {fileID: 4386625243646400, guid: 4ca1679f59738414ba176b2992042c80, type: 3}
      propertyPath: m_LocalRotation.w
      value: 1
      objectReference: {fileID: 0}
    - target: {fileID: 4386625243646400, guid: 4ca1679f59738414ba176b2992042c80, type: 3}
      propertyPath: m_RootOrder
      value: 4
      objectReference: {fileID: 0}
    - target: {fileID: 4386625243646400, guid: 4ca1679f59738414ba176b2992042c80, type: 3}
      propertyPath: m_LocalScale.x
      value: 0.08
      objectReference: {fileID: 0}
    - target: {fileID: 4386625243646400, guid: 4ca1679f59738414ba176b2992042c80, type: 3}
      propertyPath: m_LocalScale.y
      value: 0.08
      objectReference: {fileID: 0}
    - target: {fileID: 4386625243646400, guid: 4ca1679f59738414ba176b2992042c80, type: 3}
      propertyPath: m_LocalScale.z
      value: 0.08
      objectReference: {fileID: 0}
    - target: {fileID: 114699901572180746, guid: 4ca1679f59738414ba176b2992042c80,
        type: 3}
      propertyPath: audioSource
      value: 
      objectReference: {fileID: 1073279694}
    - target: {fileID: 114699901572180746, guid: 4ca1679f59738414ba176b2992042c80,
        type: 3}
      propertyPath: barPrefab
      value: 
      objectReference: {fileID: 1111153027474118, guid: c0c1e17a8f1ed6c4bbffed84fc91a108,
        type: 3}
    - target: {fileID: 114699901572180746, guid: 4ca1679f59738414ba176b2992042c80,
        type: 3}
      propertyPath: barYScale
      value: 30
      objectReference: {fileID: 0}
    - target: {fileID: 114699901572180746, guid: 4ca1679f59738414ba176b2992042c80,
        type: 3}
      propertyPath: barXSpacing
      value: 0.2
      objectReference: {fileID: 0}
    - target: {fileID: 114699901572180746, guid: 4ca1679f59738414ba176b2992042c80,
        type: 3}
      propertyPath: decayDamp
      value: 0.102
      objectReference: {fileID: 0}
    - target: {fileID: 114699901572180746, guid: 4ca1679f59738414ba176b2992042c80,
        type: 3}
      propertyPath: colorMin.r
      value: 0.16176468
      objectReference: {fileID: 0}
    - target: {fileID: 114699901572180746, guid: 4ca1679f59738414ba176b2992042c80,
        type: 3}
      propertyPath: colorMin.g
      value: 0.16176468
      objectReference: {fileID: 0}
    - target: {fileID: 114699901572180746, guid: 4ca1679f59738414ba176b2992042c80,
        type: 3}
      propertyPath: colorMin.b
      value: 0.16176468
      objectReference: {fileID: 0}
    - target: {fileID: 114699901572180746, guid: 4ca1679f59738414ba176b2992042c80,
        type: 3}
      propertyPath: colorMax.r
      value: 0.5661765
      objectReference: {fileID: 0}
    - target: {fileID: 114699901572180746, guid: 4ca1679f59738414ba176b2992042c80,
        type: 3}
      propertyPath: colorMax.g
      value: 0.5661765
      objectReference: {fileID: 0}
    - target: {fileID: 114699901572180746, guid: 4ca1679f59738414ba176b2992042c80,
        type: 3}
      propertyPath: colorMax.b
      value: 0.5661765
      objectReference: {fileID: 0}
    - target: {fileID: 114699901572180746, guid: 4ca1679f59738414ba176b2992042c80,
        type: 3}
      propertyPath: colorAttackDamp
      value: 0.546
      objectReference: {fileID: 0}
    - target: {fileID: 114699901572180746, guid: 4ca1679f59738414ba176b2992042c80,
        type: 3}
      propertyPath: colorDecayDamp
      value: 0.134
      objectReference: {fileID: 0}
    - target: {fileID: 114699901572180746, guid: 4ca1679f59738414ba176b2992042c80,
        type: 3}
      propertyPath: muteGroup
      value: 
      objectReference: {fileID: 24300001, guid: 1d9bfcb87d0ba844e9071a1e60825ede,
        type: 2}
    - target: {fileID: 114699901572180746, guid: 4ca1679f59738414ba176b2992042c80,
        type: 3}
      propertyPath: useLogarithmicFrequency
      value: 0
      objectReference: {fileID: 0}
    - target: {fileID: 114699901572180746, guid: 4ca1679f59738414ba176b2992042c80,
        type: 3}
      propertyPath: linearSampleStretch
      value: 0.2
      objectReference: {fileID: 0}
    - target: {fileID: 114699901572180746, guid: 4ca1679f59738414ba176b2992042c80,
        type: 3}
      propertyPath: numSamples
      value: 1024
      objectReference: {fileID: 0}
    - target: {fileID: 114699901572180746, guid: 4ca1679f59738414ba176b2992042c80,
        type: 3}
      propertyPath: frequencyLimitHigh
      value: 1000
      objectReference: {fileID: 0}
    m_RemovedComponents: []
  m_SourcePrefab: {fileID: 100100000, guid: 4ca1679f59738414ba176b2992042c80, type: 3}
--- !u!1001 &717659621
PrefabInstance:
  m_ObjectHideFlags: 0
  serializedVersion: 2
  m_Modification:
    m_TransformParent: {fileID: 0}
    m_Modifications:
    - target: {fileID: 1733289766624924, guid: 4ca1679f59738414ba176b2992042c80, type: 3}
      propertyPath: m_Name
      value: Spectrum (All Frequencies)
      objectReference: {fileID: 0}
    - target: {fileID: 4386625243646400, guid: 4ca1679f59738414ba176b2992042c80, type: 3}
      propertyPath: m_LocalPosition.x
      value: 0
      objectReference: {fileID: 0}
    - target: {fileID: 4386625243646400, guid: 4ca1679f59738414ba176b2992042c80, type: 3}
      propertyPath: m_LocalPosition.y
      value: 1.5
      objectReference: {fileID: 0}
    - target: {fileID: 4386625243646400, guid: 4ca1679f59738414ba176b2992042c80, type: 3}
      propertyPath: m_LocalPosition.z
      value: 0
      objectReference: {fileID: 0}
    - target: {fileID: 4386625243646400, guid: 4ca1679f59738414ba176b2992042c80, type: 3}
      propertyPath: m_LocalRotation.x
      value: 0
      objectReference: {fileID: 0}
    - target: {fileID: 4386625243646400, guid: 4ca1679f59738414ba176b2992042c80, type: 3}
      propertyPath: m_LocalRotation.y
      value: 0
      objectReference: {fileID: 0}
    - target: {fileID: 4386625243646400, guid: 4ca1679f59738414ba176b2992042c80, type: 3}
      propertyPath: m_LocalRotation.z
      value: 0
      objectReference: {fileID: 0}
    - target: {fileID: 4386625243646400, guid: 4ca1679f59738414ba176b2992042c80, type: 3}
      propertyPath: m_LocalRotation.w
      value: 1
      objectReference: {fileID: 0}
    - target: {fileID: 4386625243646400, guid: 4ca1679f59738414ba176b2992042c80, type: 3}
      propertyPath: m_RootOrder
      value: 3
      objectReference: {fileID: 0}
    - target: {fileID: 4386625243646400, guid: 4ca1679f59738414ba176b2992042c80, type: 3}
      propertyPath: m_LocalScale.x
      value: 0.08
      objectReference: {fileID: 0}
    - target: {fileID: 4386625243646400, guid: 4ca1679f59738414ba176b2992042c80, type: 3}
      propertyPath: m_LocalScale.y
      value: 0.08
      objectReference: {fileID: 0}
    - target: {fileID: 4386625243646400, guid: 4ca1679f59738414ba176b2992042c80, type: 3}
      propertyPath: m_LocalScale.z
      value: 0.08
      objectReference: {fileID: 0}
    - target: {fileID: 114699901572180746, guid: 4ca1679f59738414ba176b2992042c80,
        type: 3}
      propertyPath: audioSource
      value: 
      objectReference: {fileID: 1073279694}
    - target: {fileID: 114699901572180746, guid: 4ca1679f59738414ba176b2992042c80,
        type: 3}
      propertyPath: barPrefab
      value: 
      objectReference: {fileID: 1111153027474118, guid: c0c1e17a8f1ed6c4bbffed84fc91a108,
        type: 3}
    - target: {fileID: 114699901572180746, guid: 4ca1679f59738414ba176b2992042c80,
        type: 3}
      propertyPath: barYScale
      value: 30
      objectReference: {fileID: 0}
    - target: {fileID: 114699901572180746, guid: 4ca1679f59738414ba176b2992042c80,
        type: 3}
      propertyPath: barXSpacing
      value: 0.2
      objectReference: {fileID: 0}
    - target: {fileID: 114699901572180746, guid: 4ca1679f59738414ba176b2992042c80,
        type: 3}
      propertyPath: decayDamp
      value: 0.102
      objectReference: {fileID: 0}
    - target: {fileID: 114699901572180746, guid: 4ca1679f59738414ba176b2992042c80,
        type: 3}
      propertyPath: colorMin.r
      value: 0.16176468
      objectReference: {fileID: 0}
    - target: {fileID: 114699901572180746, guid: 4ca1679f59738414ba176b2992042c80,
        type: 3}
      propertyPath: colorMin.g
      value: 0.16176468
      objectReference: {fileID: 0}
    - target: {fileID: 114699901572180746, guid: 4ca1679f59738414ba176b2992042c80,
        type: 3}
      propertyPath: colorMin.b
      value: 0.16176468
      objectReference: {fileID: 0}
    - target: {fileID: 114699901572180746, guid: 4ca1679f59738414ba176b2992042c80,
        type: 3}
      propertyPath: colorMax.r
      value: 0.5661765
      objectReference: {fileID: 0}
    - target: {fileID: 114699901572180746, guid: 4ca1679f59738414ba176b2992042c80,
        type: 3}
      propertyPath: colorMax.g
      value: 0.5661765
      objectReference: {fileID: 0}
    - target: {fileID: 114699901572180746, guid: 4ca1679f59738414ba176b2992042c80,
        type: 3}
      propertyPath: colorMax.b
      value: 0.5661765
      objectReference: {fileID: 0}
    - target: {fileID: 114699901572180746, guid: 4ca1679f59738414ba176b2992042c80,
        type: 3}
      propertyPath: colorAttackDamp
      value: 0.546
      objectReference: {fileID: 0}
    - target: {fileID: 114699901572180746, guid: 4ca1679f59738414ba176b2992042c80,
        type: 3}
      propertyPath: colorDecayDamp
      value: 0.134
      objectReference: {fileID: 0}
    - target: {fileID: 114699901572180746, guid: 4ca1679f59738414ba176b2992042c80,
        type: 3}
      propertyPath: muteGroup
      value: 
      objectReference: {fileID: 24300001, guid: 1d9bfcb87d0ba844e9071a1e60825ede,
        type: 2}
    m_RemovedComponents: []
  m_SourcePrefab: {fileID: 100100000, guid: 4ca1679f59738414ba176b2992042c80, type: 3}
--- !u!1 &1008801935
GameObject:
  m_ObjectHideFlags: 0
  m_CorrespondingSourceObject: {fileID: 0}
  m_PrefabInstance: {fileID: 0}
  m_PrefabAsset: {fileID: 0}
  serializedVersion: 6
  m_Component:
  - component: {fileID: 1008801936}
  - component: {fileID: 1008801938}
  - component: {fileID: 1008801937}
  m_Layer: 5
  m_Name: Text
  m_TagString: Untagged
  m_Icon: {fileID: 0}
  m_NavMeshLayer: 0
  m_StaticEditorFlags: 0
  m_IsActive: 1
--- !u!224 &1008801936
RectTransform:
  m_ObjectHideFlags: 0
  m_CorrespondingSourceObject: {fileID: 0}
  m_PrefabInstance: {fileID: 0}
  m_PrefabAsset: {fileID: 0}
  m_GameObject: {fileID: 1008801935}
  m_LocalRotation: {x: 0, y: 0, z: 0, w: 1}
  m_LocalPosition: {x: 0, y: 0, z: 0}
  m_LocalScale: {x: 1, y: 1, z: 1}
  m_Children: []
  m_Father: {fileID: 1314365061}
  m_RootOrder: 0
  m_LocalEulerAnglesHint: {x: 0, y: 0, z: 0}
  m_AnchorMin: {x: 0.5, y: 1}
  m_AnchorMax: {x: 0.5, y: 1}
  m_AnchoredPosition: {x: 0, y: -130}
  m_SizeDelta: {x: 500, y: 200}
  m_Pivot: {x: 0.5, y: 0.5}
--- !u!114 &1008801937
MonoBehaviour:
  m_ObjectHideFlags: 0
  m_CorrespondingSourceObject: {fileID: 0}
  m_PrefabInstance: {fileID: 0}
  m_PrefabAsset: {fileID: 0}
  m_GameObject: {fileID: 1008801935}
  m_Enabled: 1
  m_EditorHideFlags: 0
  m_Script: {fileID: 11500000, guid: 5f7201a12d95ffc409449d95f23cf332, type: 3}
  m_Name: 
  m_EditorClassIdentifier: 
  m_Material: {fileID: 0}
  m_Color: {r: 0.19607843, g: 0.19607843, b: 0.19607843, a: 1}
  m_RaycastTarget: 1
  m_OnCullStateChanged:
    m_PersistentCalls:
      m_Calls: []
  m_FontData:
    m_Font: {fileID: 10102, guid: 0000000000000000e000000000000000, type: 0}
    m_FontSize: 16
    m_FontStyle: 0
    m_BestFit: 0
    m_MinSize: 1
    m_MaxSize: 40
    m_Alignment: 0
    m_AlignByGeometry: 0
    m_RichText: 1
    m_HorizontalOverflow: 0
    m_VerticalOverflow: 0
    m_LineSpacing: 1
  m_Text: 'By altering Use Logarithmic Frequency, Frequency Limit Low and Frequency
    Limit High, you can make Spectrums that focus on certain frequency ranges and
    appear smoother.

    Keep in mind that this will probably require more samples to look good!'
--- !u!222 &1008801938
CanvasRenderer:
  m_ObjectHideFlags: 0
  m_CorrespondingSourceObject: {fileID: 0}
  m_PrefabInstance: {fileID: 0}
  m_PrefabAsset: {fileID: 0}
  m_GameObject: {fileID: 1008801935}
  m_CullTransparentMesh: 0
--- !u!1 &1073279693
GameObject:
  m_ObjectHideFlags: 0
  m_CorrespondingSourceObject: {fileID: 0}
  m_PrefabInstance: {fileID: 0}
  m_PrefabAsset: {fileID: 0}
  serializedVersion: 6
  m_Component:
  - component: {fileID: 1073279695}
  - component: {fileID: 1073279694}
  m_Layer: 0
  m_Name: Audio Source
  m_TagString: Untagged
  m_Icon: {fileID: 0}
  m_NavMeshLayer: 0
  m_StaticEditorFlags: 0
  m_IsActive: 1
--- !u!82 &1073279694
AudioSource:
  m_ObjectHideFlags: 0
  m_CorrespondingSourceObject: {fileID: 0}
  m_PrefabInstance: {fileID: 0}
  m_PrefabAsset: {fileID: 0}
  m_GameObject: {fileID: 1073279693}
  m_Enabled: 1
  serializedVersion: 4
  OutputAudioMixerGroup: {fileID: 0}
  m_audioClip: {fileID: 8300000, guid: cc3ccdd31fd1cdd41bcd284e738d0725, type: 3}
  m_PlayOnAwake: 1
  m_Volume: 1
  m_Pitch: 1
  Loop: 1
  Mute: 0
  Spatialize: 0
  SpatializePostEffects: 0
  Priority: 128
  DopplerLevel: 1
  MinDistance: 1
  MaxDistance: 500
  Pan2D: 0
  rolloffMode: 0
  BypassEffects: 0
  BypassListenerEffects: 0
  BypassReverbZones: 0
  rolloffCustomCurve:
    serializedVersion: 2
    m_Curve:
    - serializedVersion: 3
      time: 0
      value: 1
      inSlope: 0
      outSlope: 0
      tangentMode: 0
      weightedMode: 0
      inWeight: 0.33333334
      outWeight: 0.33333334
    - serializedVersion: 3
      time: 1
      value: 0
      inSlope: 0
      outSlope: 0
      tangentMode: 0
      weightedMode: 0
      inWeight: 0.33333334
      outWeight: 0.33333334
    m_PreInfinity: 2
    m_PostInfinity: 2
    m_RotationOrder: 4
  panLevelCustomCurve:
    serializedVersion: 2
    m_Curve:
    - serializedVersion: 3
      time: 0
      value: 0
      inSlope: 0
      outSlope: 0
      tangentMode: 0
      weightedMode: 0
      inWeight: 0.33333334
      outWeight: 0.33333334
    m_PreInfinity: 2
    m_PostInfinity: 2
    m_RotationOrder: 0
  spreadCustomCurve:
    serializedVersion: 2
    m_Curve:
    - serializedVersion: 3
      time: 0
      value: 0
      inSlope: 0
      outSlope: 0
      tangentMode: 0
      weightedMode: 0
      inWeight: 0.33333334
      outWeight: 0.33333334
    m_PreInfinity: 2
    m_PostInfinity: 2
    m_RotationOrder: 4
  reverbZoneMixCustomCurve:
    serializedVersion: 2
    m_Curve:
    - serializedVersion: 3
      time: 0
      value: 1
      inSlope: 0
      outSlope: 0
      tangentMode: 0
      weightedMode: 0
      inWeight: 0.33333334
      outWeight: 0.33333334
    m_PreInfinity: 2
    m_PostInfinity: 2
    m_RotationOrder: 0
--- !u!4 &1073279695
Transform:
  m_ObjectHideFlags: 0
  m_CorrespondingSourceObject: {fileID: 0}
  m_PrefabInstance: {fileID: 0}
  m_PrefabAsset: {fileID: 0}
  m_GameObject: {fileID: 1073279693}
  m_LocalRotation: {x: 0, y: 0, z: 0, w: 1}
  m_LocalPosition: {x: 0, y: 0, z: 0}
  m_LocalScale: {x: 1, y: 1, z: 1}
  m_Children: []
  m_Father: {fileID: 0}
  m_RootOrder: 2
  m_LocalEulerAnglesHint: {x: 0, y: 0, z: 0}
--- !u!1 &1314365057
GameObject:
  m_ObjectHideFlags: 0
  m_CorrespondingSourceObject: {fileID: 0}
  m_PrefabInstance: {fileID: 0}
  m_PrefabAsset: {fileID: 0}
  serializedVersion: 6
  m_Component:
  - component: {fileID: 1314365061}
  - component: {fileID: 1314365060}
  - component: {fileID: 1314365059}
  - component: {fileID: 1314365058}
  m_Layer: 5
  m_Name: Canvas
  m_TagString: Untagged
  m_Icon: {fileID: 0}
  m_NavMeshLayer: 0
  m_StaticEditorFlags: 0
  m_IsActive: 1
--- !u!114 &1314365058
MonoBehaviour:
  m_ObjectHideFlags: 0
  m_CorrespondingSourceObject: {fileID: 0}
  m_PrefabInstance: {fileID: 0}
  m_PrefabAsset: {fileID: 0}
  m_GameObject: {fileID: 1314365057}
  m_Enabled: 1
  m_EditorHideFlags: 0
  m_Script: {fileID: 11500000, guid: dc42784cf147c0c48a680349fa168899, type: 3}
  m_Name: 
  m_EditorClassIdentifier: 
  m_IgnoreReversedGraphics: 1
  m_BlockingObjects: 0
  m_BlockingMask:
    serializedVersion: 2
    m_Bits: 4294967295
--- !u!114 &1314365059
MonoBehaviour:
  m_ObjectHideFlags: 0
  m_CorrespondingSourceObject: {fileID: 0}
  m_PrefabInstance: {fileID: 0}
  m_PrefabAsset: {fileID: 0}
  m_GameObject: {fileID: 1314365057}
  m_Enabled: 1
  m_EditorHideFlags: 0
  m_Script: {fileID: 11500000, guid: 0cd44c1031e13a943bb63640046fad76, type: 3}
  m_Name: 
  m_EditorClassIdentifier: 
  m_UiScaleMode: 0
  m_ReferencePixelsPerUnit: 100
  m_ScaleFactor: 1
  m_ReferenceResolution: {x: 800, y: 600}
  m_ScreenMatchMode: 0
  m_MatchWidthOrHeight: 1
  m_PhysicalUnit: 3
  m_FallbackScreenDPI: 96
  m_DefaultSpriteDPI: 96
  m_DynamicPixelsPerUnit: 1
--- !u!223 &1314365060
Canvas:
  m_ObjectHideFlags: 0
  m_CorrespondingSourceObject: {fileID: 0}
  m_PrefabInstance: {fileID: 0}
  m_PrefabAsset: {fileID: 0}
  m_GameObject: {fileID: 1314365057}
  m_Enabled: 1
  serializedVersion: 3
  m_RenderMode: 0
  m_Camera: {fileID: 0}
  m_PlaneDistance: 100
  m_PixelPerfect: 0
  m_ReceivesEvents: 1
  m_OverrideSorting: 0
  m_OverridePixelPerfect: 0
  m_SortingBucketNormalizedSize: 0
  m_AdditionalShaderChannelsFlag: 25
  m_SortingLayerID: 0
  m_SortingOrder: 0
  m_TargetDisplay: 0
--- !u!224 &1314365061
RectTransform:
  m_ObjectHideFlags: 0
  m_CorrespondingSourceObject: {fileID: 0}
  m_PrefabInstance: {fileID: 0}
  m_PrefabAsset: {fileID: 0}
  m_GameObject: {fileID: 1314365057}
  m_LocalRotation: {x: 0, y: 0, z: 0, w: 1}
  m_LocalPosition: {x: 0, y: 0, z: 0}
  m_LocalScale: {x: 0, y: 0, z: 0}
  m_Children:
  - {fileID: 1008801936}
  m_Father: {fileID: 0}
  m_RootOrder: 1
  m_LocalEulerAnglesHint: {x: 0, y: 0, z: 0}
  m_AnchorMin: {x: 0, y: 0}
  m_AnchorMax: {x: 0, y: 0}
  m_AnchoredPosition: {x: 0, y: 0}
  m_SizeDelta: {x: 0, y: 0}
  m_Pivot: {x: 0, y: 0}
